<?xml version="1.0" encoding="utf-8"?>
<!-- Generator: Adobe Illustrator 23.0.1, SVG Export Plug-In . SVG Version: 6.00 Build 0)  -->
<svg version="1.1" id="Layer_1" xmlns="http://www.w3.org/2000/svg" xmlns:xlink="http://www.w3.org/1999/xlink" x="0px" y="0px"
	 viewBox="0 0 13 13" enable-background="new 0 0 13 13" xml:space="preserve">
<path d="M1.365,12.299h10.27c1.05,0,1.705-1.139,1.18-2.046L7.68,1.381c-0.525-0.907-1.834-0.907-2.36,0l-5.135,8.872
	C-0.34,11.16,0.315,12.299,1.365,12.299z M6.5,7.525c-0.375,0-0.682-0.307-0.682-0.682V5.48c0-0.375,0.307-0.682,0.682-0.682
	S7.182,5.105,7.182,5.48v1.364C7.182,7.219,6.875,7.525,6.5,7.525z M7.182,10.253H5.818V8.889h1.364V10.253z"/>
</svg>
