<?xml version="1.0" encoding="utf-8"?>
<!-- Generator: Adobe Illustrator 23.0.1, SVG Export Plug-In . SVG Version: 6.00 Build 0)  -->
<svg version="1.1" id="Layer_1" xmlns="http://www.w3.org/2000/svg" xmlns:xlink="http://www.w3.org/1999/xlink" x="0px" y="0px"
	 viewBox="0 0 15 15" style="enable-background:new 0 0 15 15;" xml:space="preserve">
<path d="M10.2,13.1c-0.4,0.4-1.1,0.4-1.5,0L3.8,8.2c-0.4-0.4-0.4-1.1,0-1.5l4.9-4.9c0.4-0.4,1.1-0.4,1.5,0c0.4,0.4,0.4,1.1,0,1.5
	L6,7.5l4.2,4.2C10.7,12.1,10.6,12.8,10.2,13.1z"/>
</svg>
