<?xml version="1.0" encoding="utf-8"?>
<!-- Generator: Adobe Illustrator 23.0.1, SVG Export Plug-In . SVG Version: 6.00 Build 0)  -->
<svg version="1.1" id="Layer_1" xmlns="http://www.w3.org/2000/svg" xmlns:xlink="http://www.w3.org/1999/xlink" x="0px" y="0px"
	 viewBox="0 0 13 13" enable-background="new 0 0 13 13" xml:space="preserve">
<path d="M6.5,0C2.925,0,0,2.925,0,6.5S2.925,13,6.5,13S13,10.075,13,6.5S10.075,0,6.5,0z M6.5,11.7c-2.86,0-5.2-2.34-5.2-5.2
	s2.34-5.2,5.2-5.2s5.2,2.34,5.2,5.2S9.36,11.7,6.5,11.7z M6.37,3.25L6.37,3.25c-0.325,0-0.52,0.195-0.52,0.455V6.76
	c0,0.26,0.13,0.455,0.325,0.585l2.73,1.625C9.1,9.1,9.425,9.035,9.555,8.84C9.685,8.645,9.62,8.32,9.36,8.19L6.825,6.695v-2.99
	C6.825,3.445,6.63,3.25,6.37,3.25z"/>
</svg>
