<?xml version="1.0" encoding="utf-8"?>
<!-- Generator: Adobe Illustrator 23.0.1, SVG Export Plug-In . SVG Version: 6.00 Build 0)  -->
<svg version="1.1" id="Layer_1" xmlns="http://www.w3.org/2000/svg" xmlns:xlink="http://www.w3.org/1999/xlink" x="0px" y="0px"
	 viewBox="0 0 13 13" style="enable-background:new 0 0 13 13;" xml:space="preserve">
<path d="M11.5,0h-10C0.7,0,0,0.6,0,1.5v5c0,0.8,0.6,1.5,1.5,1.5h10c0.7,0,1.4-0.6,1.4-1.5v-5C13,0.6,12.3,0,11.5,0z M11.5,4.3H9.3
	c-0.4,0-0.6,0.3-0.7,0.6c-0.2,0.9-1,1.6-2,1.6s-1.8-0.6-2-1.6C4.4,4.5,4.1,4.3,3.7,4.3H1.5V2.1c0-0.4,0.3-0.7,0.7-0.7h8.6
	c0.4,0,0.7,0.3,0.7,0.7L11.5,4.3L11.5,4.3z M9.3,9.3h3c0.4,0,0.7,0.4,0.7,0.7v1.5c0,0.8-0.6,1.5-1.5,1.5h-10C0.7,12.9,0,12.3,0,11.4
	V10c0-0.4,0.4-0.7,0.7-0.7h3c0.4,0,0.6,0.3,0.7,0.6c0.3,0.9,1.1,1.6,2,1.6s1.8-0.6,2-1.6C8.6,9.6,8.9,9.3,9.3,9.3z"/>
</svg>
