<?xml version="1.0" encoding="utf-8"?>
<!-- Generator: Adobe Illustrator 23.0.1, SVG Export Plug-In . SVG Version: 6.00 Build 0)  -->
<svg version="1.1" id="Layer_1" xmlns="http://www.w3.org/2000/svg" xmlns:xlink="http://www.w3.org/1999/xlink" x="0px" y="0px"
	 viewBox="0 0 13 13" enable-background="new 0 0 13 13" xml:space="preserve">
<path d="M8.864,5.909c1.005,0,1.773-0.768,1.773-1.773S9.868,2.364,8.864,2.364S7.091,3.132,7.091,4.136S7.859,5.909,8.864,5.909z
	 M4.136,5.909c1.005,0,1.773-0.768,1.773-1.773S5.141,2.364,4.136,2.364S2.364,3.132,2.364,4.136S3.132,5.909,4.136,5.909z
	 M4.136,7.091C2.777,7.091,0,7.8,0,9.159v0.886c0,0.295,0.295,0.591,0.591,0.591h7.091c0.355,0,0.591-0.295,0.591-0.591V9.159
	C8.273,7.8,5.495,7.091,4.136,7.091z M8.864,7.091c-0.177,0-0.355,0-0.591,0.059l0,0c0.65,0.473,1.123,1.123,1.123,2.009v0.886
	c0,0.236-0.059,0.414-0.118,0.591h3.132c0.295,0,0.591-0.295,0.591-0.591V9.159C13,7.8,10.223,7.091,8.864,7.091z"/>
</svg>
