<?xml version="1.0" encoding="utf-8"?>
<!-- Generator: Adobe Illustrator 23.0.1, SVG Export Plug-In . SVG Version: 6.00 Build 0)  -->
<svg version="1.1" id="Layer_1" xmlns="http://www.w3.org/2000/svg" xmlns:xlink="http://www.w3.org/1999/xlink" x="0px" y="0px"
	 viewBox="0 0 13 13" enable-background="new 0 0 13 13" xml:space="preserve">
<path d="M10.932,4.136H9.455V2.955c0-0.65-0.532-1.182-1.182-1.182H1.182C0.532,1.773,0,2.305,0,2.955v5.318
	c0,0.65,0.532,1.182,1.182,1.182c0,1.005,0.768,1.773,1.773,1.773s1.773-0.768,1.773-1.773h3.545c0,1.005,0.768,1.773,1.773,1.773
	s1.773-0.768,1.773-1.773h0.591C12.705,9.455,13,9.159,13,8.864v-1.95c0-0.236-0.059-0.532-0.236-0.709l-1.359-1.832
	C11.286,4.195,11.109,4.136,10.932,4.136z M2.955,10.045c-0.355,0-0.591-0.295-0.591-0.591c0-0.295,0.236-0.591,0.591-0.591
	s0.591,0.295,0.591,0.591C3.545,9.75,3.309,10.045,2.955,10.045z M10.932,5.023L12.114,6.5H9.455V5.023H10.932z M10.045,10.045
	c-0.295,0-0.591-0.295-0.591-0.591c0-0.295,0.295-0.591,0.591-0.591c0.295,0,0.591,0.295,0.591,0.591
	C10.636,9.75,10.341,10.045,10.045,10.045z"/>
</svg>
