<?xml version="1.0" encoding="utf-8"?>
<!-- Generator: Adobe Illustrator 23.0.1, SVG Export Plug-In . SVG Version: 6.00 Build 0)  -->
<svg version="1.1" id="Layer_1" xmlns="http://www.w3.org/2000/svg" xmlns:xlink="http://www.w3.org/1999/xlink" x="0px" y="0px"
	 viewBox="0 0 24 24" style="enable-background:new 0 0 24 24;" xml:space="preserve">
<path d="M4,21h16c0.5,0,1-0.5,1-1s-0.5-1-1-1H4c-0.5,0-1,0.5-1,1S3.5,21,4,21z M3,9.2v5.6c0,0.4,0.5,0.7,0.8,0.4l2.8-2.8
	c0.2-0.2,0.2-0.5,0-0.7L3.8,8.9C3.5,8.5,3,8.8,3,9.2z M12,17h8c0.5,0,1-0.5,1-1s-0.5-1-1-1h-8c-0.6,0-1,0.4-1,1
	C11,16.5,11.4,17,12,17z M3,4c0,0.6,0.5,1,1,1h16c0.5,0,1-0.4,1-1s-0.5-1-1-1H4C3.5,3,3,3.5,3,4z M12,9h8c0.5,0,1-0.4,1-1
	s-0.5-1-1-1h-8c-0.6,0-1,0.4-1,1S11.4,9,12,9z M12,13h8c0.5,0,1-0.4,1-1s-0.5-1-1-1h-8c-0.6,0-1,0.4-1,1S11.4,13,12,13z"/>
</svg>
