<?xml version="1.0" encoding="utf-8"?>
<!-- Generator: Adobe Illustrator 23.0.1, SVG Export Plug-In . SVG Version: 6.00 Build 0)  -->
<svg version="1.1" id="Layer_1" xmlns="http://www.w3.org/2000/svg" xmlns:xlink="http://www.w3.org/1999/xlink" x="0px" y="0px"
	 viewBox="0 0 13 13" enable-background="new 0 0 13 13" xml:space="preserve">
<path d="M10.214,4.333H9.595V3.095C9.595,1.362,8.233,0,6.5,0S3.405,1.362,3.405,3.095v1.238H2.786
	c-0.681,0-1.238,0.557-1.238,1.238v6.19C1.548,12.443,2.105,13,2.786,13h7.429c0.681,0,1.238-0.557,1.238-1.238v-6.19
	C11.452,4.89,10.895,4.333,10.214,4.333z M6.5,9.905c-0.681,0-1.238-0.557-1.238-1.238c0-0.681,0.557-1.238,1.238-1.238
	s1.238,0.557,1.238,1.238C7.738,9.348,7.181,9.905,6.5,9.905z M4.643,4.333V3.095c0-1.052,0.805-1.857,1.857-1.857
	s1.857,0.805,1.857,1.857v1.238H4.643z"/>
</svg>
