<?xml version="1.0"?>
<svg xmlns="http://www.w3.org/2000/svg" viewBox="0 0 16 16">
    <path d="M 7.5 1 C 6.8531387 1 6.3022261 1.4209662 6.09375 2 L 3.5 2 C 2.6774686 2 2 2.6774686 2 3.5 L 2 12.5 C 2 13.322531 2.6774686 14 3.5 14 L 7 14 L 7 14.003906 C 7 14.553906 7.4451406 15 7.9941406 15 L 13.003906 15 C 13.553906 15 14 14.554859 14 14.005859 L 14 7.9941406 C 14 7.4451406 13.554859 7 13.005859 7 L 13 7 L 13 3.5 C 13 2.6774686 12.322531 2 11.5 2 L 8.90625 2 C 8.6977739 1.4209662 8.1468613 1 7.5 1 z M 7.5 2 C 7.7814686 2 8 2.2185314 8 2.5 L 8 3 L 9 3 L 9 4 L 6 4 L 6 3 L 6.5 3 L 7 3 L 7 2.5 C 7 2.2185314 7.2185314 2 7.5 2 z M 3.5 3 L 5 3 L 5 5 L 10 5 L 10 3 L 11.5 3 C 11.781469 3 12 3.2185314 12 3.5 L 12 7 L 7.9941406 7 C 7.4451406 7 7 7.4451406 7 7.9941406 L 7 13 L 3.5 13 C 3.2185314 13 3 12.781469 3 12.5 L 3 3.5 C 3 3.2185314 3.2185314 3 3.5 3 z M 7.9941406 8 L 13 8 L 13.005859 14 L 8 14.005859 L 7.9941406 8 z"/>
</svg>
