<?xml version="1.0" encoding="utf-8"?>
<!-- Generator: Adobe Illustrator 23.0.1, SVG Export Plug-In . SVG Version: 6.00 Build 0)  -->
<svg version="1.1" id="Layer_1" xmlns="http://www.w3.org/2000/svg" xmlns:xlink="http://www.w3.org/1999/xlink" x="0px" y="0px"
	 viewBox="0 0 13 13" style="enable-background:new 0 0 13 13;" xml:space="preserve">
<path d="M9,7.2H7.1c-0.4,0-0.7,0.2-0.7,0.6v1.9c0,0.3,0.3,0.7,0.7,0.7H9c0.3,0,0.7-0.3,0.7-0.7V7.8C9.7,7.4,9.4,7.2,9,7.2z M9,0.7
	v0.7H3.9V0.7C3.9,0.3,3.5,0,3.2,0S2.5,0.3,2.5,0.7v0.7H2c-0.8,0-1.3,0.6-1.3,1.2v9.1C0.6,12.4,1.2,13,2,13H11c0.8,0,1.3-0.6,1.3-1.3
	V2.6c0-0.8-0.6-1.3-1.3-1.3h-0.7V0.7C10.4,0.3,10,0,9.7,0C9.4,0,9,0.3,9,0.7z M10.4,11.7H2.5c-0.3,0-0.7-0.3-0.7-0.7V4.5H11V11
	C11,11.3,10.7,11.7,10.4,11.7z"/>
</svg>
