<?xml version="1.0" encoding="utf-8"?>
<!-- Generator: Adobe Illustrator 23.0.1, SVG Export Plug-In . SVG Version: 6.00 Build 0)  -->
<svg version="1.1" id="Layer_1" xmlns="http://www.w3.org/2000/svg" xmlns:xlink="http://www.w3.org/1999/xlink" x="0px" y="0px"
	 viewBox="0 0 13 13" style="enable-background:new 0 0 13 13;" xml:space="preserve">
<path d="M9.6,8.3H9L8.7,8.1c0.9-1.1,1.4-2.5,1.1-4C9.5,1.9,7.7,0.3,5.6,0C2.4-0.3-0.3,2.3,0,5.6c0.2,2.1,2,3.9,4,4.3
	c1.5,0.2,3-0.2,4-1.1L8.3,9v0.6l3.3,3.2c0.3,0.3,0.8,0.3,1.1,0c0.3-0.3,0.3-0.8,0-1.1L9.6,8.3z M5,8.3c-1.9,0-3.4-1.5-3.4-3.4
	S3.1,1.5,5,1.5S8.4,3,8.4,4.9S6.9,8.3,5,8.3z"/>
</svg>
