<?xml version="1.0" encoding="utf-8"?>
<!-- Generator: Adobe Illustrator 23.0.1, SVG Export Plug-In . SVG Version: 6.00 Build 0)  -->
<svg version="1.1" id="Layer_1" xmlns="http://www.w3.org/2000/svg" xmlns:xlink="http://www.w3.org/1999/xlink" x="0px" y="0px"
	 viewBox="0 0 13 13" enable-background="new 0 0 13 13" xml:space="preserve">
<path d="M0.933,12.1l11.667-5c0.533-0.267,0.533-1,0-1.2l-11.667-5C0.467,0.7,0,1.033,0,1.5v3.067c0,0.333,0.267,0.6,0.6,0.667
	L10,6.5L0.6,7.767C0.267,7.833,0,8.1,0,8.433V11.5C0,11.967,0.467,12.3,0.933,12.1z"/>
</svg>
