<?xml version="1.0" encoding="utf-8"?>
<!-- Generator: Adobe Illustrator 23.0.1, SVG Export Plug-In . SVG Version: 6.00 Build 0)  -->
<svg version="1.1" id="Layer_1" xmlns="http://www.w3.org/2000/svg" xmlns:xlink="http://www.w3.org/1999/xlink" x="0px" y="0px"
	 viewBox="0 0 13 13" enable-background="new 0 0 13 13" xml:space="preserve">
<path d="M6.5,2.1C3.5,2.1,1,3.9,0,6.5c1,2.6,3.5,4.4,6.5,4.4S12,9.1,13,6.5C12,3.9,9.5,2.1,6.5,2.1z M6.5,9.5c-1.7,0-3-1.3-3-3
	s1.3-3,3-3s3,1.3,3,3S8.2,9.5,6.5,9.5z M6.5,4.7c-1,0-1.8,0.8-1.8,1.8s0.8,1.8,1.8,1.8s1.8-0.8,1.8-1.8S7.5,4.7,6.5,4.7z"/>
</svg>
