<?xml version="1.0" encoding="utf-8"?>
<!-- Generator: Adobe Illustrator 23.0.1, SVG Export Plug-In . SVG Version: 6.00 Build 0)  -->
<svg version="1.1" id="Layer_1" xmlns="http://www.w3.org/2000/svg" xmlns:xlink="http://www.w3.org/1999/xlink" x="0px" y="0px"
	 viewBox="0 0 13 13" style="enable-background:new 0 0 13 13;" xml:space="preserve">
<path d="M10.4,0H3.2c-0.5,0-1,0.4-1,1v2.9h1.3V1.7c0-0.2,0.2-0.4,0.4-0.4h5.7c0.2,0,0.4,0.2,0.4,0.4v9.6c0,0.2-0.2,0.4-0.4,0.4H4
	c-0.2,0-0.4-0.2-0.4-0.4V9.1H2.3V12c0,0.5,0.4,1,1,1h7.2c0.5,0,1-0.4,1-1V1C11.4,0.4,10.9,0,10.4,0z M6.2,8.8l2.3-2.3L6.2,4.3
	C6,4,5.6,4.2,5.6,4.4v1.3H2.4C2,5.7,1.6,6.1,1.6,6.5S2,7.3,2.4,7.3h3.2v1.3C5.6,8.8,6,9,6.2,8.8z"/>
</svg>
