<?xml version="1.0" encoding="utf-8"?>
<!-- Generator: Adobe Illustrator 23.0.1, SVG Export Plug-In . SVG Version: 6.00 Build 0)  -->
<svg version="1.1" id="Layer_1" xmlns="http://www.w3.org/2000/svg" xmlns:xlink="http://www.w3.org/1999/xlink" x="0px" y="0px"
	 viewBox="0 0 13 13" style="enable-background:new 0 0 13 13;" xml:space="preserve">
<style type="text/css">
	.st0{fill:#231F20;}
</style>
<path class="st0" d="M12.644,2.722L8.651,1.487c-0.011-0.003-0.023,0-0.034-0.002C8.579,1.475,8.542,1.477,8.502,1.477
	c-0.039,0-0.076-0.001-0.115,0.008C8.376,1.487,8.365,1.483,8.354,1.487l-3.85,1.191l-3.85-1.191
	c-0.153-0.048-0.32-0.02-0.449,0.076C0.076,1.658,0,1.808,0,1.968v7.828c0,0.221,0.144,0.417,0.355,0.482l3.993,1.236
	c0.049,0.015,0.1,0.023,0.149,0.023c0.002,0,0.004-0.002,0.006-0.002c0.002,0,0.004,0.002,0.006,0.002
	c0.05,0,0.101-0.008,0.149-0.023l3.843-1.19l3.844,1.19c0.048,0.015,0.099,0.023,0.149,0.023c0.106,0,0.212-0.034,0.3-0.099
	C12.924,11.343,13,11.192,13,11.032V3.204C13,2.983,12.856,2.787,12.644,2.722z M3.993,10.348L1.416,9.55
	C1.174,9.475,1.009,9.251,1.009,8.998V3.436c0-0.389,0.377-0.667,0.749-0.552l2.235,0.692V10.348z M5.015,3.576l2.983-0.923v6.772
	l-2.983,0.923V3.576z M11.242,10.116L9.007,9.424V2.653l2.577,0.797c0.242,0.075,0.407,0.299,0.407,0.552v5.562
	C11.991,9.953,11.614,10.231,11.242,10.116z"/>
</svg>
