<svg width="14" height="14" viewBox="0 0 14 14" fill="none" xmlns="http://www.w3.org/2000/svg">
<path fill-rule="evenodd" clip-rule="evenodd" d="M1.99083 12.1801L11.1152 1.18077L11.8848 1.81923L2.76049 12.8186L1.99083 12.1801Z" fill="black"/>
<path d="M8.68156 8.08179C8.93634 8.62744 9.43281 9 10 9C10.8248 9 11.5 8.21223 11.5 7.25C11.5 6.56799 11.1608 5.97363 10.6695 5.68529L8.68156 8.08179Z" fill="black"/>
<path d="M7 11.625C7 10.4436 8.98738 9.875 10 9.875C11.0126 9.875 13 10.4436 13 11.625V12.0628C13 12.2814 12.8126 12.5 12.6252 12.5H7.37523C7.15 12.5 7 12.2814 7 12.0628V11.625Z" fill="black"/>
<path fill-rule="evenodd" clip-rule="evenodd" d="M6 2.2C6 2.75228 5.75 3 4 3C2.25 3 2 2.75228 2 2.2C2 1.64772 2.89543 1 4 1C5.10457 1 6 1.64772 6 2.2ZM5.42857 2.12C5.42857 2.45137 5.25 2.6 4 2.6C2.75 2.6 2.57143 2.45137 2.57143 2.12C2.57143 1.78863 3.21102 1.4 4 1.4C4.78898 1.4 5.42857 1.78863 5.42857 2.12Z" fill="black"/>
<path d="M5.84885 5.37746C5.94625 4.87791 6 4.33031 6 3.75608C6 3.56235 5.99389 3.43573 5.98206 3.31813C5.9604 3.10337 5.68269 2.95947 5.47331 3.01022C5.17794 3.0818 4.71043 3.1498 4 3.1498C3.28957 3.1498 2.82203 3.0818 2.52667 3.01022C2.3173 2.95947 2.0396 3.10337 2.01797 3.31813C2.00612 3.43573 2 3.56235 2 3.75608C2 5.89097 2.7429 7.65772 3.71008 7.95574L5.84885 5.37746Z" fill="black"/>
<path d="M6.93189 4.07187L6.25238 4.89101C6.28136 4.49584 6.28347 4.12892 6.28521 3.82547C6.28813 3.31884 6.29002 2.98912 6.4142 3.00027C6.5532 3.01275 6.80972 3.44892 6.93189 4.07187Z" fill="black"/>
<path d="M1.92671 6.9997C1.72133 7.01816 1.10664 6.17119 1.0125 5.06679C0.918352 3.96236 1.38041 3.01871 1.58578 3.00027C1.70998 2.98912 1.71188 3.31886 1.71479 3.82552C1.7167 4.15669 1.71904 4.56345 1.75625 4.99999C1.79346 5.43653 1.85998 5.83752 1.91413 6.16399C1.99699 6.66347 2.05091 6.98854 1.92671 6.9997Z" fill="black"/>
</svg>
