<svg width="18" height="18" viewBox="0 0 18 18" fill="none" xmlns="http://www.w3.org/2000/svg">
<path d="M1.5 11V2H15.5V6.58729C15.214 6.45729 14.8764 6.33933 14.5 6.24381V5C13.4 5 12.5 4.1 12.5 3H4.5C4.5 4.1 3.6 5 2.5 5V8C3.6 8 4.5 8.9 4.5 10H8.5V11H1.5Z" fill="black"/>
<path d="M11.4663 6.08066C11.2718 4.88647 10.2568 4 9 4H8C6.6 4 5.5 5.1 5.5 6.5C5.5 7.9 6.6 9 8 9H8.52552C8.56473 8.62905 8.64828 8.29642 8.77037 8H8C7.2 8 6.5 7.3 6.5 6.5C6.5 5.7 7.2 5 8 5H9C9.74875 5 10.4099 5.61318 10.4915 6.34764C10.7936 6.22594 11.1208 6.13776 11.4663 6.08066Z" fill="black"/>
<path fill-rule="evenodd" clip-rule="evenodd" d="M12.75 6.5C11.7942 6.5 10.8949 6.75692 10.2127 7.21175C9.53624 7.66269 9 8.36841 9 9.25C9 9.61273 9.0922 9.94935 9.24863 10.2502C9.09227 10.5514 9 10.8883 9 11.2501C9 11.6128 9.09218 11.9493 9.24858 12.2502C9.09216 12.5515 9 12.8886 9 13.2499C9 14.1315 9.53624 14.8373 10.2127 15.2882C10.8949 15.743 11.7942 15.9999 12.75 15.9999C13.7058 15.9999 14.6051 15.743 15.2873 15.2882C15.9638 14.8373 16.5 14.1315 16.5 13.2499C16.5 12.8886 16.4078 12.5515 16.2514 12.2502C16.4078 11.9493 16.5 11.6128 16.5 11.2501C16.5 10.8883 16.4077 10.5514 16.2514 10.2502C16.4078 9.94935 16.5 9.61273 16.5 9.25C16.5 8.36841 15.9638 7.66269 15.2873 7.21175C14.6051 6.75692 13.7058 6.5 12.75 6.5ZM10.7674 8.0438C11.2638 7.71285 11.964 7.5 12.75 7.5C13.536 7.5 14.2362 7.71285 14.7326 8.0438C15.2314 8.37631 15.5 8.80783 15.5 9.25C15.5 9.47263 15.4319 9.6924 15.3009 9.89813C15.2876 9.91891 15.2736 9.93956 15.259 9.96008L15.2444 9.98057C15.1182 10.1528 14.9465 10.3136 14.7326 10.4562C14.2362 10.7872 13.536 11 12.75 11C11.964 11 11.2638 10.7872 10.7674 10.4562C10.5535 10.3136 10.3818 10.1528 10.2556 9.98058L10.241 9.96008C10.2264 9.93954 10.2124 9.91886 10.1991 9.89805C10.0681 9.69235 10 9.4726 10 9.25C10 8.80783 10.2686 8.37631 10.7674 8.0438ZM10.1067 10.7712C10.128 10.7246 10.1523 10.6786 10.1798 10.6332C10.2757 10.7187 10.3796 10.7986 10.49 10.8722C11.0793 11.2651 11.8791 11.5 12.75 11.5C13.6209 11.5 14.4207 11.2651 15.01 10.8722C15.1204 10.7986 15.2243 10.7187 15.3202 10.6332C15.3477 10.6786 15.372 10.7246 15.3933 10.7712C15.4638 10.926 15.5 11.0867 15.5 11.2501C15.5 11.4727 15.4319 11.6924 15.3009 11.8982C15.2876 11.9189 15.2737 11.9396 15.2591 11.9601L15.2445 11.9806C15.1182 12.1528 14.9465 12.3137 14.7326 12.4563C14.2362 12.7872 13.536 13.0001 12.75 13.0001C11.964 13.0001 11.2638 12.7872 10.7674 12.4563C10.5535 12.3137 10.3818 12.1528 10.2555 11.9806L10.2409 11.9601C10.2263 11.9396 10.2124 11.9189 10.1991 11.8981C10.0681 11.6924 10 11.4727 10 11.2501C10 11.0867 10.0362 10.926 10.1067 10.7712ZM10.1797 12.6331C10.2756 12.7187 10.3795 12.7986 10.49 12.8723C11.0793 13.2652 11.8791 13.5001 12.75 13.5001C13.6209 13.5001 14.4207 13.2652 15.01 12.8723C15.1205 12.7986 15.2244 12.7187 15.3203 12.6331C15.43 12.8148 15.4908 13.0066 15.499 13.2036C15.4997 13.219 15.5 13.2345 15.5 13.2499C15.5 13.6921 15.2314 14.1236 14.7326 14.4562C14.6706 14.4975 14.6054 14.537 14.5372 14.5745C14.0598 14.837 13.4377 14.9999 12.75 14.9999C11.964 14.9999 11.2638 14.7871 10.7674 14.4562C10.2686 14.1236 10 13.6921 10 13.2499C10 13.0367 10.0615 12.829 10.1797 12.6331Z" fill="black"/>
<path fill-rule="evenodd" clip-rule="evenodd" d="M5.14646 11.6465L5.85357 12.3536L4.70712 13.5H8.50001V14.5H4.70712L5.85357 15.6465L5.14646 16.3536L2.79291 14L5.14646 11.6465Z" fill="black"/>
</svg>
