<svg width="18" height="18" viewBox="0 0 18 18" fill="none" xmlns="http://www.w3.org/2000/svg">
<path fill-rule="evenodd" clip-rule="evenodd" d="M0.5 8C0.5 7.17157 1.17157 6.5 2 6.5H10C10.8284 6.5 11.5 7.17157 11.5 8V16C11.5 16.8284 10.8284 17.5 10 17.5H2C1.17157 17.5 0.5 16.8284 0.5 16V8ZM2 7.5C1.72386 7.5 1.5 7.72386 1.5 8V16C1.5 16.2761 1.72386 16.5 2 16.5H10C10.2761 16.5 10.5 16.2761 10.5 16V8C10.5 7.72386 10.2761 7.5 10 7.5H2Z" fill="black"/>
<path fill-rule="evenodd" clip-rule="evenodd" d="M3.5 5C3.5 4.17157 4.17157 3.5 5 3.5H13C13.8284 3.5 14.5 4.17157 14.5 5V13C14.5 13.8284 13.8284 14.5 13 14.5H12V13.5H13C13.2761 13.5 13.5 13.2761 13.5 13V5C13.5 4.72386 13.2761 4.5 13 4.5H5C4.72386 4.5 4.5 4.72386 4.5 5V6H3.5V5Z" fill="black"/>
<path fill-rule="evenodd" clip-rule="evenodd" d="M6.5 2C6.5 1.17157 7.17157 0.5 8 0.5H16C16.8284 0.5 17.5 1.17157 17.5 2V10C17.5 10.8284 16.8284 11.5 16 11.5H15V10.5H16C16.2761 10.5 16.5 10.2761 16.5 10V2C16.5 1.72386 16.2761 1.5 16 1.5H8C7.72386 1.5 7.5 1.72386 7.5 2V3H6.5V2Z" fill="black"/>
<path fill-rule="evenodd" clip-rule="evenodd" d="M9.35356 10.3536L5.00001 14.7071L2.64645 12.3536L3.35356 11.6465L5.00001 13.2929L8.64645 9.64648L9.35356 10.3536Z" fill="black"/>
</svg>
